{
    "name": "pf2e-color-effects",
    "title": "PF2E Token Markers",
    "description": "Adds Macros that let you track various things as effects on tokens.",
    "version": "1.5.0",
    "author": "InfamousSky",
    "minimumCoreVersion": "9",
    "compatibleCoreVersion": "9",
    "system": ["dnd5e"],
        "packs": [
        {
            "name": "pf2e-color-effects",
            "label": "PF2E Token Marker Effects",
            "path": "./packs/color-effects.db",
            "type": "Item"
        },
        {
            "name": "pf2e-color-macros",
            "label": "PF2E Token Marker Macros",
            "path": "./packs/color-effects-macros.db",
            "type": "Macro"
        }
    ],
    "url": "https://gitlab.com/nemery/5-e-color-effects/",
    "manifest": "https://gitlab.com/nemery/5-e-color-effects/-/raw/main/pf2e-color-effects/module.json",
    "download": "https://gitlab.com/nemery/5-e-color-effects/-/archive/main/5-e-color-effects-main.zip"
  }
